%!PS-Adobe-3.0 EPSF-3.0
%%DocumentNeededResources: font Helvetica
%%+ font Helvetica-Bold
%%+ font Helvetica-Oblique
%%+ font Helvetica-BoldOblique
%%+ font Symbol
%%Title: R Graphics Output
%%Creator: R Software
%%Pages: (atend)
%%BoundingBox: 0 0 504 504
%%EndComments
%%BeginProlog
/bp  { gs sRGB gs } def
% begin .ps.prolog
/gs  { gsave } bind def
/gr  { grestore } bind def
/ep  { showpage gr gr } bind def
/m   { moveto } bind def
/l  { rlineto } bind def
/np  { newpath } bind def
/cp  { closepath } bind def
/f   { fill } bind def
/o   { stroke } bind def
/c   { newpath 0 360 arc } bind def
/r   { 4 2 roll moveto 1 copy 3 -1 roll exch 0 exch rlineto 0 rlineto -1 mul 0 exch rlineto closepath } bind def
/p1  { stroke } bind def
/p2  { gsave bg fill grestore newpath } bind def
/p3  { gsave bg fill grestore stroke } bind def
/p6  { gsave bg eofill grestore newpath } bind def
/p7  { gsave bg eofill grestore stroke } bind def
/t   { 5 -2 roll moveto gsave rotate
       1 index stringwidth pop
       mul neg 0 rmoveto show grestore } bind def
/ta  { 4 -2 roll moveto gsave rotate show } bind def
/tb  { 2 -1 roll 0 rmoveto show } bind def
/cl  { grestore gsave newpath 3 index 3 index moveto 1 index
       4 -1 roll lineto  exch 1 index lineto lineto
       closepath clip newpath } bind def
/rgb { setrgbcolor } bind def
/s   { scalefont setfont } bind def
% end   .ps.prolog
/sRGB { [ /CIEBasedABC
          << /DecodeLMN
               [ { dup 0.03928 le
                        {12.92321 div}
                        {0.055 add 1.055 div 2.4 exp }
                     ifelse
                 } bind dup dup
               ]
             /MatrixLMN [0.412457 0.212673 0.019334
                         0.357576 0.715152 0.119192
                         0.180437 0.072175 0.950301]
             /WhitePoint [0.9505 1.0 1.0890]
           >>
         ] setcolorspace } bind def
/srgb { setcolor } bind def
%%IncludeResource: font Helvetica
/Helvetica findfont
dup length dict begin
  {1 index /FID ne {def} {pop pop} ifelse} forall
  /Encoding ISOLatin1Encoding def
  currentdict
  end
/Font1 exch definefont pop
%%IncludeResource: font Helvetica-Bold
/Helvetica-Bold findfont
dup length dict begin
  {1 index /FID ne {def} {pop pop} ifelse} forall
  /Encoding ISOLatin1Encoding def
  currentdict
  end
/Font2 exch definefont pop
%%IncludeResource: font Helvetica-Oblique
/Helvetica-Oblique findfont
dup length dict begin
  {1 index /FID ne {def} {pop pop} ifelse} forall
  /Encoding ISOLatin1Encoding def
  currentdict
  end
/Font3 exch definefont pop
%%IncludeResource: font Helvetica-BoldOblique
/Helvetica-BoldOblique findfont
dup length dict begin
  {1 index /FID ne {def} {pop pop} ifelse} forall
  /Encoding ISOLatin1Encoding def
  currentdict
  end
/Font4 exch definefont pop
%%IncludeResource: font Symbol
/Symbol findfont
dup length dict begin
  {1 index /FID ne {def} {pop pop} ifelse} forall
  currentdict
  end
/Font5 exch definefont pop
%%EndProlog
%%Page: 1 1
bp
59.04 73.44 473.76 444.96 cl
0 0 0 srgb
0.75 setlinewidth
[] 0 setdash
1 setlinecap
1 setlinejoin
10.00 setmiterlimit
122.85 100.09 2.70 c p1
458.40 405.51 2.70 c p1
74.40 370.46 2.70 c p1
439.16 114.46 2.70 c p1
254.92 240.56 2.70 c p1
88.29 226.85 2.70 c p1
233.42 87.20 2.70 c p1
247.59 405.07 2.70 c p1
439.05 264.16 2.70 c p1
161.71 155.83 2.70 c p1
161.15 346.90 2.70 c p1
327.47 163.32 2.70 c p1
319.43 333.92 2.70 c p1
204.62 254.11 2.70 c p1
329.51 232.73 2.70 c p1
395.97 201.98 2.70 c p1
363.67 427.54 2.70 c p1
228.78 153.04 2.70 c p1
106.27 431.20 2.70 c p1
244.84 311.80 2.70 c p1
0.00 0.00 504.00 504.00 cl
0 0 0 srgb
0.75 setlinewidth
[] 0 setdash
1 setlinecap
1 setlinejoin
10.00 setmiterlimit
np
110.29 73.44 m
309.38 0 l
o
np
110.29 73.44 m
0 -7.20 l
o
np
172.16 73.44 m
0 -7.20 l
o
np
234.04 73.44 m
0 -7.20 l
o
np
295.91 73.44 m
0 -7.20 l
o
np
357.79 73.44 m
0 -7.20 l
o
np
419.67 73.44 m
0 -7.20 l
o
/Font1 findfont 12 s
110.29 47.52 (100) .5 0 t
172.16 47.52 (200) .5 0 t
234.04 47.52 (300) .5 0 t
295.91 47.52 (400) .5 0 t
357.79 47.52 (500) .5 0 t
419.67 47.52 (600) .5 0 t
np
59.04 137.54 m
0 261.26 l
o
np
59.04 137.54 m
-7.20 0 l
o
np
59.04 224.63 m
-7.20 0 l
o
np
59.04 311.71 m
-7.20 0 l
o
np
59.04 398.80 m
-7.20 0 l
o
41.76 137.54 (100) .5 90 t
41.76 224.63 (200) .5 90 t
41.76 311.71 (300) .5 90 t
41.76 398.80 (400) .5 90 t
np
59.04 73.44 m
414.72 0 l
0 371.52 l
-414.72 0 l
0 -371.52 l
o
0.00 0.00 504.00 504.00 cl
/Font2 findfont 14 s
0 0 0 srgb
148.16 469.45 (Camera Coor) 0 ta
-0.280 (dinates f) tb
-0.280 (or Calibration) tb gr
/Font1 findfont 12 s
266.40 18.72 (u) .5 0 t
12.96 259.20 (v) .5 90 t
ep
%%Trailer
%%Pages: 1
%%EOF
