%!PS-Adobe-3.0 EPSF-3.0
%%DocumentNeededResources: font Helvetica
%%+ font Helvetica-Bold
%%+ font Helvetica-Oblique
%%+ font Helvetica-BoldOblique
%%+ font Symbol
%%Title: R Graphics Output
%%Creator: R Software
%%Pages: (atend)
%%BoundingBox: 0 0 504 504
%%EndComments
%%BeginProlog
/bp  { gs sRGB gs } def
% begin .ps.prolog
/gs  { gsave } bind def
/gr  { grestore } bind def
/ep  { showpage gr gr } bind def
/m   { moveto } bind def
/l  { rlineto } bind def
/np  { newpath } bind def
/cp  { closepath } bind def
/f   { fill } bind def
/o   { stroke } bind def
/c   { newpath 0 360 arc } bind def
/r   { 4 2 roll moveto 1 copy 3 -1 roll exch 0 exch rlineto 0 rlineto -1 mul 0 exch rlineto closepath } bind def
/p1  { stroke } bind def
/p2  { gsave bg fill grestore newpath } bind def
/p3  { gsave bg fill grestore stroke } bind def
/p6  { gsave bg eofill grestore newpath } bind def
/p7  { gsave bg eofill grestore stroke } bind def
/t   { 5 -2 roll moveto gsave rotate
       1 index stringwidth pop
       mul neg 0 rmoveto show grestore } bind def
/ta  { 4 -2 roll moveto gsave rotate show } bind def
/tb  { 2 -1 roll 0 rmoveto show } bind def
/cl  { grestore gsave newpath 3 index 3 index moveto 1 index
       4 -1 roll lineto  exch 1 index lineto lineto
       closepath clip newpath } bind def
/rgb { setrgbcolor } bind def
/s   { scalefont setfont } bind def
% end   .ps.prolog
/sRGB { [ /CIEBasedABC
          << /DecodeLMN
               [ { dup 0.03928 le
                        {12.92321 div}
                        {0.055 add 1.055 div 2.4 exp }
                     ifelse
                 } bind dup dup
               ]
             /MatrixLMN [0.412457 0.212673 0.019334
                         0.357576 0.715152 0.119192
                         0.180437 0.072175 0.950301]
             /WhitePoint [0.9505 1.0 1.0890]
           >>
         ] setcolorspace } bind def
/srgb { setcolor } bind def
%%IncludeResource: font Helvetica
/Helvetica findfont
dup length dict begin
  {1 index /FID ne {def} {pop pop} ifelse} forall
  /Encoding ISOLatin1Encoding def
  currentdict
  end
/Font1 exch definefont pop
%%IncludeResource: font Helvetica-Bold
/Helvetica-Bold findfont
dup length dict begin
  {1 index /FID ne {def} {pop pop} ifelse} forall
  /Encoding ISOLatin1Encoding def
  currentdict
  end
/Font2 exch definefont pop
%%IncludeResource: font Helvetica-Oblique
/Helvetica-Oblique findfont
dup length dict begin
  {1 index /FID ne {def} {pop pop} ifelse} forall
  /Encoding ISOLatin1Encoding def
  currentdict
  end
/Font3 exch definefont pop
%%IncludeResource: font Helvetica-BoldOblique
/Helvetica-BoldOblique findfont
dup length dict begin
  {1 index /FID ne {def} {pop pop} ifelse} forall
  /Encoding ISOLatin1Encoding def
  currentdict
  end
/Font4 exch definefont pop
%%IncludeResource: font Symbol
/Symbol findfont
dup length dict begin
  {1 index /FID ne {def} {pop pop} ifelse} forall
  currentdict
  end
/Font5 exch definefont pop
%%EndProlog
%%Page: 1 1
bp
0.00 0.00 504.00 504.00 cl
0 0 0 srgb
0.75 setlinewidth
[] 0 setdash
1 setlinecap
1 setlinejoin
10.00 setmiterlimit
np
84.74 73.44 m
309.38 0 l
o
np
84.74 73.44 m
0 -7.20 l
o
np
187.87 73.44 m
0 -7.20 l
o
np
291.00 73.44 m
0 -7.20 l
o
np
394.12 73.44 m
0 -7.20 l
o
/Font1 findfont 12 s
84.74 47.52 (0) .5 0 t
187.87 47.52 (200) .5 0 t
291.00 47.52 (400) .5 0 t
394.12 47.52 (600) .5 0 t
np
59.04 84.04 m
0 309.38 l
o
np
59.04 84.04 m
-7.20 0 l
o
np
59.04 135.60 m
-7.20 0 l
o
np
59.04 187.17 m
-7.20 0 l
o
np
59.04 238.73 m
-7.20 0 l
o
np
59.04 290.29 m
-7.20 0 l
o
np
59.04 341.86 m
-7.20 0 l
o
np
59.04 393.42 m
-7.20 0 l
o
41.76 84.04 (-100) .5 90 t
41.76 135.60 (0) .5 90 t
41.76 187.17 (100) .5 90 t
41.76 238.73 (200) .5 90 t
41.76 290.29 (300) .5 90 t
41.76 341.86 (400) .5 90 t
41.76 393.42 (500) .5 90 t
np
59.04 73.44 m
414.72 0 l
0 371.52 l
-414.72 0 l
0 -371.52 l
o
0.00 0.00 504.00 504.00 cl
/Font2 findfont 14 s
0 0 0 srgb
111.99 469.45 (Repr) 0 ta
-0.280 (ojection Err) tb
-0.280 (or f) tb
-0.280 (or Calibration Coor) tb
-0.280 (dinates) tb gr
/Font1 findfont 12 s
266.40 18.72 (u) .5 0 t
12.96 259.20 (v) .5 90 t
59.04 73.44 473.76 444.96 cl
0 0 0 srgb
0.75 setlinewidth
[] 0 setdash
1 setlinecap
1 setlinejoin
10.00 setmiterlimit
146.77 164.99 9.15 c p1
426.40 345.83 2.46 c p1
106.40 325.07 3.27 c p1
410.36 173.50 3.68 c p1
256.84 248.17 2.84 c p1
117.98 240.04 8.79 c p1
238.92 157.36 3.18 c p1
250.72 345.57 1.13 c p1
410.28 262.14 2.70 c p1
179.16 197.99 6.83 c p1
178.69 311.12 6.80 c p1
317.29 202.43 1.74 c p1
310.59 303.44 1.58 c p1
214.91 256.18 10.20 c p1
318.99 243.52 6.97 c p1
374.37 225.32 7.77 c p1
347.46 358.87 8.06 c p1
235.05 196.34 9.11 c p1
132.95 361.04 4.74 c p1
248.43 290.34 8.12 c p1
ep
%%Trailer
%%Pages: 1
%%EOF
