%!PS-Adobe-3.0 EPSF-3.0
%%DocumentNeededResources: font Helvetica
%%+ font Helvetica-Bold
%%+ font Helvetica-Oblique
%%+ font Helvetica-BoldOblique
%%+ font Symbol
%%Title: R Graphics Output
%%Creator: R Software
%%Pages: (atend)
%%BoundingBox: 0 0 504 504
%%EndComments
%%BeginProlog
/bp  { gs sRGB gs } def
% begin .ps.prolog
/gs  { gsave } bind def
/gr  { grestore } bind def
/ep  { showpage gr gr } bind def
/m   { moveto } bind def
/l  { rlineto } bind def
/np  { newpath } bind def
/cp  { closepath } bind def
/f   { fill } bind def
/o   { stroke } bind def
/c   { newpath 0 360 arc } bind def
/r   { 4 2 roll moveto 1 copy 3 -1 roll exch 0 exch rlineto 0 rlineto -1 mul 0 exch rlineto closepath } bind def
/p1  { stroke } bind def
/p2  { gsave bg fill grestore newpath } bind def
/p3  { gsave bg fill grestore stroke } bind def
/p6  { gsave bg eofill grestore newpath } bind def
/p7  { gsave bg eofill grestore stroke } bind def
/t   { 5 -2 roll moveto gsave rotate
       1 index stringwidth pop
       mul neg 0 rmoveto show grestore } bind def
/ta  { 4 -2 roll moveto gsave rotate show } bind def
/tb  { 2 -1 roll 0 rmoveto show } bind def
/cl  { grestore gsave newpath 3 index 3 index moveto 1 index
       4 -1 roll lineto  exch 1 index lineto lineto
       closepath clip newpath } bind def
/rgb { setrgbcolor } bind def
/s   { scalefont setfont } bind def
% end   .ps.prolog
/sRGB { [ /CIEBasedABC
          << /DecodeLMN
               [ { dup 0.03928 le
                        {12.92321 div}
                        {0.055 add 1.055 div 2.4 exp }
                     ifelse
                 } bind dup dup
               ]
             /MatrixLMN [0.412457 0.212673 0.019334
                         0.357576 0.715152 0.119192
                         0.180437 0.072175 0.950301]
             /WhitePoint [0.9505 1.0 1.0890]
           >>
         ] setcolorspace } bind def
/srgb { setcolor } bind def
%%IncludeResource: font Helvetica
/Helvetica findfont
dup length dict begin
  {1 index /FID ne {def} {pop pop} ifelse} forall
  /Encoding ISOLatin1Encoding def
  currentdict
  end
/Font1 exch definefont pop
%%IncludeResource: font Helvetica-Bold
/Helvetica-Bold findfont
dup length dict begin
  {1 index /FID ne {def} {pop pop} ifelse} forall
  /Encoding ISOLatin1Encoding def
  currentdict
  end
/Font2 exch definefont pop
%%IncludeResource: font Helvetica-Oblique
/Helvetica-Oblique findfont
dup length dict begin
  {1 index /FID ne {def} {pop pop} ifelse} forall
  /Encoding ISOLatin1Encoding def
  currentdict
  end
/Font3 exch definefont pop
%%IncludeResource: font Helvetica-BoldOblique
/Helvetica-BoldOblique findfont
dup length dict begin
  {1 index /FID ne {def} {pop pop} ifelse} forall
  /Encoding ISOLatin1Encoding def
  currentdict
  end
/Font4 exch definefont pop
%%IncludeResource: font Symbol
/Symbol findfont
dup length dict begin
  {1 index /FID ne {def} {pop pop} ifelse} forall
  currentdict
  end
/Font5 exch definefont pop
%%EndProlog
%%Page: 1 1
bp
59.04 73.44 473.76 444.96 cl
1 0 0 srgb
0.75 setlinewidth
[] 0 setdash
1 setlinecap
1 setlinejoin
10.00 setmiterlimit
np
74.40 431.20 m
4.39 0 l
4.45 0 l
4.44 0 l
4.64 0 l
4.26 0 l
4.41 -12.41 l
3.56 -19.24 l
5.45 -9.24 l
5.05 -5.38 l
5.79 4.47 l
4.96 -8.68 l
4.41 3.72 l
4.44 2.91 l
4.00 2.46 l
3.82 -2.65 l
1.05 2.47 l
4.11 1.12 l
4.81 2.14 l
4.34 1.88 l
4.27 1.72 l
4.28 -8.77 l
4.09 -3.63 l
4.49 -4.20 l
4.33 -3.47 l
4.77 2.07 l
4.27 -4.35 l
2.06 2.07 l
4.32 1.53 l
3.42 -1.62 l
0.85 -52.81 l
36.21 3.39 l
5.18 3.32 l
5.41 -0.15 l
3.86 2.96 l
5.26 2.55 l
4.76 1.83 l
3.60 2.71 l
5.57 2.21 l
4.79 1.91 l
4.34 0.97 l
2.30 1.70 l
4.11 0.30 l
4.94 -3.44 l
5.61 1.52 l
3.89 -2.95 l
7.54 1.81 l
4.78 1.01 l
5.34 1.54 l
4.38 1.96 l
5.81 -1.16 l
5.59 -1.50 l
3.42 -3.94 l
8.75 -12.22 l
18.89 1.20 l
3.44 1.50 l
4.43 1.47 l
4.45 1.43 l
4.48 0.03 l
1.15 1.50 l
4.88 1.86 l
6.23 1.19 l
4.14 1.10 l
3.91 1.11 l
4.05 1.12 l
4.18 1.28 l
4.89 0.89 l
3.51 -2.83 l
3.78 1.29 l
5.12 0.96 l
3.87 1.00 l
4.16 0.09 l
2.59 1.45 l
6.24 -0.90 l
1.28 -0.72 l
3.62 1.39 l
7.87 0.85 l
3.87 0 l
o
0.00 0.00 504.00 504.00 cl
0 0 0 srgb
0.75 setlinewidth
[] 0 setdash
1 setlinecap
1 setlinejoin
10.00 setmiterlimit
np
59.04 87.20 m
0 344.00 l
o
np
59.04 87.20 m
-7.20 0 l
o
np
59.04 156.00 m
-7.20 0 l
o
np
59.04 224.80 m
-7.20 0 l
o
np
59.04 293.60 m
-7.20 0 l
o
np
59.04 362.40 m
-7.20 0 l
o
np
59.04 431.20 m
-7.20 0 l
o
/Font1 findfont 12 s
41.76 87.20 (0) .5 90 t
41.76 156.00 (20) .5 90 t
41.76 224.80 (40) .5 90 t
41.76 293.60 (60) .5 90 t
41.76 362.40 (80) .5 90 t
41.76 431.20 (100) .5 90 t
np
59.04 73.44 m
414.72 0 l
0 371.52 l
-414.72 0 l
0 -371.52 l
o
0.00 0.00 504.00 504.00 cl
/Font2 findfont 14 s
0 0 0 srgb
200.46 469.45 (F) 0 ta
-1.120 (A) tb
-1.260 (T - 9 Bric) tb
-0.280 (k Or) tb
-0.280 (der) tb gr
/Font1 findfont 12 s
266.40 18.72 (Time) .5 0 t
12.96 259.20 (Score [%]) .5 90 t
0.00 0.00 504.00 504.00 cl
0 0 0 srgb
0.75 setlinewidth
[] 0 setdash
1 setlinecap
1 setlinejoin
10.00 setmiterlimit
np
74.40 73.44 m
384.00 0 l
o
np
74.40 73.44 m
0 -7.20 l
o
np
170.40 73.44 m
0 -7.20 l
o
np
266.40 73.44 m
0 -7.20 l
o
np
362.40 73.44 m
0 -7.20 l
o
np
458.40 73.44 m
0 -7.20 l
o
/Font1 findfont 12 s
74.40 47.52 (08/12 16:05) .5 0 t
170.40 47.52 (08/12 20:01) .5 0 t
266.40 47.52 (08/12 23:56) .5 0 t
362.40 47.52 (09/12 03:52) .5 0 t
458.40 47.52 (09/12 07:47) .5 0 t
59.04 73.44 473.76 444.96 cl
0 1 0 srgb
0.75 setlinewidth
[] 0 setdash
1 setlinecap
1 setlinejoin
10.00 setmiterlimit
np
74.40 431.20 m
4.39 0 l
4.45 0 l
4.44 0 l
4.64 0 l
4.26 0 l
4.41 -49.14 l
3.56 -36.86 l
5.45 -28.67 l
5.05 -22.93 l
5.79 12.51 l
4.96 -18.24 l
4.41 11.02 l
4.44 9.45 l
4.00 8.19 l
3.82 -14.33 l
1.05 7.59 l
4.11 -12.37 l
4.81 7.04 l
4.34 6.34 l
4.27 5.73 l
4.28 -10.42 l
4.09 -9.52 l
4.49 -8.72 l
4.33 -8.03 l
4.77 5.82 l
4.27 -7.35 l
2.06 5.46 l
4.32 5.09 l
3.42 -6.73 l
0.85 4.81 l
36.21 4.51 l
5.18 4.23 l
5.41 -6.13 l
3.86 4.05 l
5.26 3.82 l
4.76 -5.68 l
3.60 3.67 l
5.57 3.48 l
4.79 3.31 l
4.34 -5.24 l
2.30 3.19 l
4.11 -4.95 l
4.94 -4.73 l
5.61 -4.51 l
3.89 -4.33 l
7.54 3.19 l
4.78 -4.12 l
5.34 3.07 l
4.38 2.95 l
5.81 -3.91 l
5.59 -3.76 l
3.42 -3.62 l
8.75 -3.49 l
18.89 2.90 l
3.44 2.79 l
4.43 2.69 l
4.45 2.60 l
4.48 -3.31 l
1.15 2.52 l
4.88 2.45 l
6.23 2.36 l
4.14 2.29 l
3.91 -3.16 l
4.05 -3.05 l
4.18 -2.97 l
4.89 2.25 l
3.51 -2.86 l
3.78 2.19 l
5.12 2.14 l
3.87 2.08 l
4.16 -2.76 l
2.59 7.60 l
6.24 -2.82 l
1.28 -2.75 l
3.62 -2.68 l
7.87 1.99 l
3.87 1.93 l
o
0 0 1 srgb
np
74.40 431.20 m
4.39 0 l
4.45 0 l
4.44 0 l
4.64 0 l
4.26 0 l
4.41 -59.78 l
3.56 -49.96 l
5.45 -32.19 l
5.05 -23.43 l
5.79 13.67 l
4.96 -21.09 l
4.41 11.70 l
4.44 10.04 l
4.00 8.78 l
3.82 -14.27 l
1.05 8.22 l
4.11 -10.18 l
4.81 7.56 l
4.34 6.85 l
4.27 6.27 l
4.28 -14.95 l
4.09 -10.52 l
4.49 -9.99 l
4.33 -8.77 l
4.77 6.09 l
4.27 -8.64 l
2.06 5.74 l
4.32 5.17 l
3.42 -6.60 l
0.85 -26.62 l
36.21 5.10 l
5.18 4.96 l
5.41 -4.42 l
3.86 4.64 l
5.26 4.28 l
4.76 -3.00 l
3.60 4.30 l
5.57 3.92 l
4.79 3.64 l
4.34 -3.32 l
2.30 3.45 l
4.11 -3.56 l
4.94 -5.60 l
5.61 -2.49 l
3.89 -4.90 l
7.54 3.39 l
4.78 -2.50 l
5.34 3.18 l
4.38 3.36 l
5.81 -3.63 l
5.59 -3.68 l
3.42 -4.88 l
8.75 -9.14 l
18.89 2.69 l
3.44 2.81 l
4.43 2.75 l
4.45 2.68 l
4.48 -2.38 l
1.15 2.67 l
4.88 2.84 l
6.23 2.42 l
4.14 2.33 l
3.91 -1.68 l
4.05 -1.63 l
4.18 -1.50 l
4.89 2.19 l
3.51 -3.73 l
3.78 2.36 l
5.12 2.14 l
3.87 2.14 l
4.16 -2.03 l
2.59 6.58 l
6.24 -2.66 l
1.28 -2.49 l
3.62 -1.22 l
7.87 1.99 l
3.87 1.46 l
o
0 0 0 srgb
0.75 setlinewidth
[ 2.25 3.75] 0 setdash
np
196.82 87.20 m
0 344.00 l
o
0.75 setlinewidth
[] 0 setdash
369.26 444.96 104.50 -57.60 r p1
1 0 0 srgb
np
380.06 430.56 m
21.60 0 l
o
0 1 0 srgb
np
380.06 416.16 m
21.60 0 l
o
0 0 1 srgb
np
380.06 401.76 m
21.60 0 l
o
/Font1 findfont 12 s
0 0 0 srgb
412.46 426.25 (A) 0 ta
-0.480 (v) tb
-0.300 (ailability) tb gr
412.46 411.85 (Quality) 0 0 t
412.46 397.45 (OEE) 0 0 t
ep
%%Trailer
%%Pages: 1
%%EOF
