%!PS-Adobe-3.0 EPSF-3.0
%%DocumentNeededResources: font Helvetica
%%+ font Helvetica-Bold
%%+ font Helvetica-Oblique
%%+ font Helvetica-BoldOblique
%%+ font Symbol
%%Title: R Graphics Output
%%Creator: R Software
%%Pages: (atend)
%%BoundingBox: 0 0 504 504
%%EndComments
%%BeginProlog
/bp  { gs sRGB gs } def
% begin .ps.prolog
/gs  { gsave } bind def
/gr  { grestore } bind def
/ep  { showpage gr gr } bind def
/m   { moveto } bind def
/l  { rlineto } bind def
/np  { newpath } bind def
/cp  { closepath } bind def
/f   { fill } bind def
/o   { stroke } bind def
/c   { newpath 0 360 arc } bind def
/r   { 4 2 roll moveto 1 copy 3 -1 roll exch 0 exch rlineto 0 rlineto -1 mul 0 exch rlineto closepath } bind def
/p1  { stroke } bind def
/p2  { gsave bg fill grestore newpath } bind def
/p3  { gsave bg fill grestore stroke } bind def
/p6  { gsave bg eofill grestore newpath } bind def
/p7  { gsave bg eofill grestore stroke } bind def
/t   { 5 -2 roll moveto gsave rotate
       1 index stringwidth pop
       mul neg 0 rmoveto show grestore } bind def
/ta  { 4 -2 roll moveto gsave rotate show } bind def
/tb  { 2 -1 roll 0 rmoveto show } bind def
/cl  { grestore gsave newpath 3 index 3 index moveto 1 index
       4 -1 roll lineto  exch 1 index lineto lineto
       closepath clip newpath } bind def
/rgb { setrgbcolor } bind def
/s   { scalefont setfont } bind def
% end   .ps.prolog
/sRGB { [ /CIEBasedABC
          << /DecodeLMN
               [ { dup 0.03928 le
                        {12.92321 div}
                        {0.055 add 1.055 div 2.4 exp }
                     ifelse
                 } bind dup dup
               ]
             /MatrixLMN [0.412457 0.212673 0.019334
                         0.357576 0.715152 0.119192
                         0.180437 0.072175 0.950301]
             /WhitePoint [0.9505 1.0 1.0890]
           >>
         ] setcolorspace } bind def
/srgb { setcolor } bind def
%%IncludeResource: font Helvetica
/Helvetica findfont
dup length dict begin
  {1 index /FID ne {def} {pop pop} ifelse} forall
  /Encoding ISOLatin1Encoding def
  currentdict
  end
/Font1 exch definefont pop
%%IncludeResource: font Helvetica-Bold
/Helvetica-Bold findfont
dup length dict begin
  {1 index /FID ne {def} {pop pop} ifelse} forall
  /Encoding ISOLatin1Encoding def
  currentdict
  end
/Font2 exch definefont pop
%%IncludeResource: font Helvetica-Oblique
/Helvetica-Oblique findfont
dup length dict begin
  {1 index /FID ne {def} {pop pop} ifelse} forall
  /Encoding ISOLatin1Encoding def
  currentdict
  end
/Font3 exch definefont pop
%%IncludeResource: font Helvetica-BoldOblique
/Helvetica-BoldOblique findfont
dup length dict begin
  {1 index /FID ne {def} {pop pop} ifelse} forall
  /Encoding ISOLatin1Encoding def
  currentdict
  end
/Font4 exch definefont pop
%%IncludeResource: font Symbol
/Symbol findfont
dup length dict begin
  {1 index /FID ne {def} {pop pop} ifelse} forall
  currentdict
  end
/Font5 exch definefont pop
%%EndProlog
%%Page: 1 1
bp
59.04 73.44 473.76 444.96 cl
1 0 0 srgb
0.75 setlinewidth
[] 0 setdash
1 setlinecap
1 setlinejoin
10.00 setmiterlimit
np
74.40 431.20 m
10.21 -130.62 l
15.77 18.12 l
6.65 28.12 l
10.87 16.15 l
10.30 1.74 l
9.66 9.46 l
10.52 0.45 l
12.11 5.85 l
9.91 -5.88 l
7.41 5.00 l
10.00 -17.11 l
13.49 -5.65 l
7.37 5.49 l
10.70 -15.85 l
22.22 5.31 l
11.20 4.54 l
10.79 -12.69 l
10.99 4.22 l
10.13 -2.60 l
15.61 -1.31 l
10.49 3.19 l
8.96 3.75 l
11.48 3.47 l
11.60 -7.54 l
14.03 -1.12 l
1.69 -1.12 l
1.86 -5.11 l
7.14 -1.43 l
2.67 3.48 l
11.49 2.93 l
10.38 3.02 l
11.43 3.10 l
12.66 2.46 l
10.78 2.29 l
10.61 2.24 l
11.05 1.87 l
9.77 2.02 l
o
0.00 0.00 504.00 504.00 cl
0 0 0 srgb
0.75 setlinewidth
[] 0 setdash
1 setlinecap
1 setlinejoin
10.00 setmiterlimit
np
59.04 87.20 m
0 344.00 l
o
np
59.04 87.20 m
-7.20 0 l
o
np
59.04 156.00 m
-7.20 0 l
o
np
59.04 224.80 m
-7.20 0 l
o
np
59.04 293.60 m
-7.20 0 l
o
np
59.04 362.40 m
-7.20 0 l
o
np
59.04 431.20 m
-7.20 0 l
o
/Font1 findfont 12 s
41.76 87.20 (0) .5 90 t
41.76 156.00 (20) .5 90 t
41.76 224.80 (40) .5 90 t
41.76 293.60 (60) .5 90 t
41.76 362.40 (80) .5 90 t
41.76 431.20 (100) .5 90 t
np
59.04 73.44 m
414.72 0 l
0 371.52 l
-414.72 0 l
0 -371.52 l
o
0.00 0.00 504.00 504.00 cl
/Font2 findfont 14 s
0 0 0 srgb
200.46 469.45 (F) 0 ta
-1.120 (A) tb
-1.260 (T - 5 Bric) tb
-0.280 (k Or) tb
-0.280 (der) tb gr
/Font1 findfont 12 s
266.40 18.72 (Time) .5 0 t
12.96 259.20 (Score [%]) .5 90 t
0.00 0.00 504.00 504.00 cl
0 0 0 srgb
0.75 setlinewidth
[] 0 setdash
1 setlinecap
1 setlinejoin
10.00 setmiterlimit
np
74.40 73.44 m
384.00 0 l
o
np
74.40 73.44 m
0 -7.20 l
o
np
170.40 73.44 m
0 -7.20 l
o
np
266.40 73.44 m
0 -7.20 l
o
np
362.40 73.44 m
0 -7.20 l
o
np
458.40 73.44 m
0 -7.20 l
o
/Font1 findfont 12 s
74.40 47.52 (08/12 08:41) .5 0 t
170.40 47.52 (08/12 10:22) .5 0 t
266.40 47.52 (08/12 12:03) .5 0 t
362.40 47.52 (08/12 13:45) .5 0 t
458.40 47.52 (08/12 15:26) .5 0 t
59.04 73.44 473.76 444.96 cl
0 1 0 srgb
0.75 setlinewidth
[] 0 setdash
1 setlinecap
1 setlinejoin
10.00 setmiterlimit
np
74.40 431.20 m
10.21 -172.00 l
15.77 -57.33 l
6.65 57.33 l
10.87 34.40 l
10.30 -34.40 l
9.66 24.57 l
10.52 -24.57 l
12.11 19.11 l
9.91 -19.11 l
7.41 15.64 l
10.00 -15.64 l
13.49 -13.23 l
7.37 13.23 l
10.70 -11.47 l
22.22 11.47 l
11.20 10.12 l
10.79 -10.12 l
10.99 9.05 l
10.13 -9.05 l
15.61 -8.19 l
10.49 8.19 l
8.96 7.48 l
11.48 6.85 l
11.60 -7.45 l
14.03 -6.88 l
1.69 -6.37 l
1.86 -5.92 l
7.14 -5.50 l
2.67 6.32 l
11.49 5.92 l
10.38 5.55 l
11.43 5.21 l
12.66 4.91 l
10.78 4.62 l
10.61 4.37 l
11.05 4.13 l
9.77 3.92 l
o
0 0 1 srgb
np
74.40 431.20 m
10.21 -237.31 l
15.77 -29.52 l
6.65 52.64 l
10.87 35.65 l
10.30 -26.70 l
9.66 25.22 l
10.52 -20.27 l
12.11 19.22 l
9.91 -19.23 l
7.41 15.78 l
10.00 -21.84 l
13.49 -13.20 l
7.37 13.12 l
10.70 -16.57 l
22.22 11.30 l
11.20 10.18 l
10.79 -14.25 l
10.99 8.97 l
10.13 -8.17 l
15.61 -6.76 l
10.49 7.70 l
8.96 7.61 l
11.48 7.14 l
11.60 -9.71 l
14.03 -5.76 l
1.69 -5.32 l
1.86 -6.80 l
7.14 -4.68 l
2.67 6.24 l
11.49 5.79 l
10.38 5.66 l
11.43 5.54 l
12.66 5.06 l
10.78 4.81 l
10.61 4.65 l
11.05 4.31 l
9.77 4.27 l
o
0 0 0 srgb
0.75 setlinewidth
[ 2.25 3.75] 0 setdash
np
376.52 87.20 m
0 300.31 l
o
0.75 setlinewidth
[] 0 setdash
369.26 444.96 104.50 -57.60 r p1
1 0 0 srgb
np
380.06 430.56 m
21.60 0 l
o
0 1 0 srgb
np
380.06 416.16 m
21.60 0 l
o
0 0 1 srgb
np
380.06 401.76 m
21.60 0 l
o
/Font1 findfont 12 s
0 0 0 srgb
412.46 426.25 (A) 0 ta
-0.480 (v) tb
-0.300 (ailability) tb gr
412.46 411.85 (Quality) 0 0 t
412.46 397.45 (OEE) 0 0 t
ep
%%Trailer
%%Pages: 1
%%EOF
