ISO-10303-21;
HEADER;
/* Generated by software containing ST-Developer
 * from STEP Tools, Inc. (www.steptools.com) 
 */

FILE_DESCRIPTION(
/* description */ (''),
/* implementation_level */ '2;1');

FILE_NAME(
/* name */ 'C:\\Users\\Nicolai Lynnerup\\Desktop\\CAD\\gripper_finger.
stp',
/* time_stamp */ '2016-10-13T08:52:34+02:00',
/* author */ ('Nicolai Lynnerup'),
/* organization */ (''),
/* preprocessor_version */ 'ST-DEVELOPER v16.5',
/* originating_system */ 'Autodesk Inventor 2017',
/* authorisation */ '');

FILE_SCHEMA (('AUTOMOTIVE_DESIGN { 1 0 10303 214 3 1 1 }'));
ENDSEC;

DATA;
#10=MECHANICAL_DESIGN_GEOMETRIC_PRESENTATION_REPRESENTATION('',(#13),#731);
#11=SHAPE_REPRESENTATION_RELATIONSHIP('SRR','None',#740,#12);
#12=ADVANCED_BREP_SHAPE_REPRESENTATION('',(#14),#730);
#13=STYLED_ITEM('',(#749),#14);
#14=MANIFOLD_SOLID_BREP('Solid1',#393);
#15=B_SPLINE_CURVE_WITH_KNOTS('',3,(#605,#606,#607,#608,#609,#610,#611,
#612,#613,#614,#615,#616,#617,#618,#619,#620,#621,#622,#623,#624,#625,#626,
#627,#628,#629,#630,#631,#632,#633,#634,#635,#636,#637,#638,#639,#640,#641,
#642),.UNSPECIFIED.,.T.,.F.,(4,2,2,2,2,2,2,2,2,2,2,2,2,2,2,2,2,2,4),(0.,
0.0686560115767255,0.137312023153451,0.274624046306902,0.456258490654743,
0.637892935002585,0.789537149461885,0.941181363921186,1.07146781287635,
1.20175426183151,1.33204071078668,1.46232715974184,1.61397137420114,1.76561558866044,
1.94725003300828,2.12888447735612,2.26619650050957,2.3348525120863,2.40350852366303),
 .UNSPECIFIED.);
#16=B_SPLINE_CURVE_WITH_KNOTS('',3,(#650,#651,#652,#653,#654,#655,#656,
#657,#658,#659,#660,#661,#662,#663,#664,#665,#666,#667,#668,#669,#670,#671,
#672,#673,#674,#675,#676,#677,#678,#679,#680,#681,#682,#683,#684,#685,#686,
#687),.UNSPECIFIED.,.T.,.F.,(4,2,2,2,2,2,2,2,2,2,2,2,2,2,2,2,2,2,4),(0.,
0.130286448955163,0.260572897910327,0.412217112369628,0.563861326828929,
0.74549577117677,0.927130215524611,1.06444223867806,1.13309825025479,1.20175426183151,
1.27041027340824,1.33906628498496,1.47637830813842,1.65801275248626,1.8396471968341,
1.9912914112934,2.1429356257527,2.27322207470786,2.40350852366303),
 .UNSPECIFIED.);
#17=CYLINDRICAL_SURFACE('',#411,2.);
#18=CYLINDRICAL_SURFACE('',#413,2.5);
#19=CYLINDRICAL_SURFACE('',#415,3.5);
#20=CYLINDRICAL_SURFACE('',#419,3.5);
#21=CYLINDRICAL_SURFACE('',#423,2.);
#22=CYLINDRICAL_SURFACE('',#425,2.);
#23=CYLINDRICAL_SURFACE('',#427,14.);
#24=CYLINDRICAL_SURFACE('',#431,2.);
#25=CYLINDRICAL_SURFACE('',#434,2.);
#26=CYLINDRICAL_SURFACE('',#436,2.5);
#27=FACE_BOUND('',#90,.T.);
#28=FACE_BOUND('',#91,.T.);
#29=FACE_BOUND('',#93,.T.);
#30=FACE_BOUND('',#94,.T.);
#31=FACE_BOUND('',#100,.T.);
#32=FACE_BOUND('',#102,.T.);
#33=FACE_BOUND('',#104,.T.);
#34=FACE_BOUND('',#106,.T.);
#35=FACE_BOUND('',#108,.T.);
#36=FACE_BOUND('',#110,.T.);
#37=FACE_BOUND('',#112,.T.);
#38=FACE_BOUND('',#114,.T.);
#39=FACE_BOUND('',#116,.T.);
#40=FACE_BOUND('',#117,.T.);
#41=FACE_BOUND('',#119,.T.);
#42=FACE_BOUND('',#120,.T.);
#43=FACE_BOUND('',#123,.T.);
#44=FACE_BOUND('',#125,.T.);
#45=FACE_BOUND('',#128,.T.);
#46=FACE_BOUND('',#129,.T.);
#47=FACE_BOUND('',#131,.T.);
#48=FACE_BOUND('',#132,.T.);
#49=CIRCLE('',#402,2.);
#50=CIRCLE('',#403,2.5);
#51=CIRCLE('',#405,2.);
#52=CIRCLE('',#406,2.5);
#53=CIRCLE('',#412,2.);
#54=CIRCLE('',#414,2.5);
#55=CIRCLE('',#416,3.5);
#56=CIRCLE('',#418,2.);
#57=CIRCLE('',#420,3.5);
#58=CIRCLE('',#422,2.);
#59=CIRCLE('',#424,2.);
#60=CIRCLE('',#426,2.);
#61=CIRCLE('',#428,14.);
#62=CIRCLE('',#429,14.);
#63=CIRCLE('',#432,2.);
#64=CIRCLE('',#433,2.);
#65=CIRCLE('',#435,2.);
#66=CIRCLE('',#437,2.5);
#67=FACE_OUTER_BOUND('',#89,.T.);
#68=FACE_OUTER_BOUND('',#92,.T.);
#69=FACE_OUTER_BOUND('',#95,.T.);
#70=FACE_OUTER_BOUND('',#96,.T.);
#71=FACE_OUTER_BOUND('',#97,.T.);
#72=FACE_OUTER_BOUND('',#98,.T.);
#73=FACE_OUTER_BOUND('',#99,.T.);
#74=FACE_OUTER_BOUND('',#101,.T.);
#75=FACE_OUTER_BOUND('',#103,.T.);
#76=FACE_OUTER_BOUND('',#105,.T.);
#77=FACE_OUTER_BOUND('',#107,.T.);
#78=FACE_OUTER_BOUND('',#109,.T.);
#79=FACE_OUTER_BOUND('',#111,.T.);
#80=FACE_OUTER_BOUND('',#113,.T.);
#81=FACE_OUTER_BOUND('',#115,.T.);
#82=FACE_OUTER_BOUND('',#118,.T.);
#83=FACE_OUTER_BOUND('',#121,.T.);
#84=FACE_OUTER_BOUND('',#122,.T.);
#85=FACE_OUTER_BOUND('',#124,.T.);
#86=FACE_OUTER_BOUND('',#126,.T.);
#87=FACE_OUTER_BOUND('',#127,.T.);
#88=FACE_OUTER_BOUND('',#130,.T.);
#89=EDGE_LOOP('',(#267,#268,#269,#270));
#90=EDGE_LOOP('',(#271));
#91=EDGE_LOOP('',(#272));
#92=EDGE_LOOP('',(#273,#274,#275,#276));
#93=EDGE_LOOP('',(#277));
#94=EDGE_LOOP('',(#278));
#95=EDGE_LOOP('',(#279,#280,#281,#282));
#96=EDGE_LOOP('',(#283,#284,#285,#286));
#97=EDGE_LOOP('',(#287,#288,#289,#290));
#98=EDGE_LOOP('',(#291,#292,#293,#294,#295,#296,#297,#298));
#99=EDGE_LOOP('',(#299));
#100=EDGE_LOOP('',(#300));
#101=EDGE_LOOP('',(#301));
#102=EDGE_LOOP('',(#302));
#103=EDGE_LOOP('',(#303));
#104=EDGE_LOOP('',(#304));
#105=EDGE_LOOP('',(#305));
#106=EDGE_LOOP('',(#306));
#107=EDGE_LOOP('',(#307));
#108=EDGE_LOOP('',(#308));
#109=EDGE_LOOP('',(#309));
#110=EDGE_LOOP('',(#310));
#111=EDGE_LOOP('',(#311));
#112=EDGE_LOOP('',(#312));
#113=EDGE_LOOP('',(#313));
#114=EDGE_LOOP('',(#314));
#115=EDGE_LOOP('',(#315,#316,#317,#318));
#116=EDGE_LOOP('',(#319));
#117=EDGE_LOOP('',(#320));
#118=EDGE_LOOP('',(#321,#322,#323,#324));
#119=EDGE_LOOP('',(#325));
#120=EDGE_LOOP('',(#326));
#121=EDGE_LOOP('',(#327,#328,#329,#330));
#122=EDGE_LOOP('',(#331));
#123=EDGE_LOOP('',(#332));
#124=EDGE_LOOP('',(#333));
#125=EDGE_LOOP('',(#334));
#126=EDGE_LOOP('',(#335,#336,#337,#338,#339,#340,#341,#342));
#127=EDGE_LOOP('',(#343,#344,#345,#346,#347,#348));
#128=EDGE_LOOP('',(#349));
#129=EDGE_LOOP('',(#350));
#130=EDGE_LOOP('',(#351,#352,#353,#354,#355,#356));
#131=EDGE_LOOP('',(#357));
#132=EDGE_LOOP('',(#358));
#133=LINE('',#553,#159);
#134=LINE('',#555,#160);
#135=LINE('',#557,#161);
#136=LINE('',#558,#162);
#137=LINE('',#566,#163);
#138=LINE('',#568,#164);
#139=LINE('',#570,#165);
#140=LINE('',#571,#166);
#141=LINE('',#577,#167);
#142=LINE('',#578,#168);
#143=LINE('',#581,#169);
#144=LINE('',#583,#170);
#145=LINE('',#584,#171);
#146=LINE('',#587,#172);
#147=LINE('',#589,#173);
#148=LINE('',#590,#174);
#149=LINE('',#593,#175);
#150=LINE('',#595,#176);
#151=LINE('',#596,#177);
#152=LINE('',#704,#178);
#153=LINE('',#707,#179);
#154=LINE('',#710,#180);
#155=LINE('',#712,#181);
#156=LINE('',#713,#182);
#157=LINE('',#724,#183);
#158=LINE('',#725,#184);
#159=VECTOR('',#445,10.);
#160=VECTOR('',#446,10.);
#161=VECTOR('',#447,10.);
#162=VECTOR('',#448,10.);
#163=VECTOR('',#455,10.);
#164=VECTOR('',#456,10.);
#165=VECTOR('',#457,10.);
#166=VECTOR('',#458,10.);
#167=VECTOR('',#465,10.);
#168=VECTOR('',#466,10.);
#169=VECTOR('',#469,10.);
#170=VECTOR('',#470,10.);
#171=VECTOR('',#471,10.);
#172=VECTOR('',#474,10.);
#173=VECTOR('',#475,10.);
#174=VECTOR('',#476,10.);
#175=VECTOR('',#479,10.);
#176=VECTOR('',#480,10.);
#177=VECTOR('',#481,10.);
#178=VECTOR('',#518,10.);
#179=VECTOR('',#521,10.);
#180=VECTOR('',#524,10.);
#181=VECTOR('',#525,10.);
#182=VECTOR('',#526,10.);
#183=VECTOR('',#543,10.);
#184=VECTOR('',#544,10.);
#185=VERTEX_POINT('',#551);
#186=VERTEX_POINT('',#552);
#187=VERTEX_POINT('',#554);
#188=VERTEX_POINT('',#556);
#189=VERTEX_POINT('',#559);
#190=VERTEX_POINT('',#561);
#191=VERTEX_POINT('',#564);
#192=VERTEX_POINT('',#565);
#193=VERTEX_POINT('',#567);
#194=VERTEX_POINT('',#569);
#195=VERTEX_POINT('',#572);
#196=VERTEX_POINT('',#574);
#197=VERTEX_POINT('',#580);
#198=VERTEX_POINT('',#582);
#199=VERTEX_POINT('',#586);
#200=VERTEX_POINT('',#588);
#201=VERTEX_POINT('',#592);
#202=VERTEX_POINT('',#594);
#203=VERTEX_POINT('',#598);
#204=VERTEX_POINT('',#601);
#205=VERTEX_POINT('',#604);
#206=VERTEX_POINT('',#643);
#207=VERTEX_POINT('',#646);
#208=VERTEX_POINT('',#649);
#209=VERTEX_POINT('',#688);
#210=VERTEX_POINT('',#691);
#211=VERTEX_POINT('',#694);
#212=VERTEX_POINT('',#697);
#213=VERTEX_POINT('',#700);
#214=VERTEX_POINT('',#701);
#215=VERTEX_POINT('',#703);
#216=VERTEX_POINT('',#705);
#217=VERTEX_POINT('',#709);
#218=VERTEX_POINT('',#711);
#219=VERTEX_POINT('',#718);
#220=VERTEX_POINT('',#721);
#221=EDGE_CURVE('',#185,#186,#133,.T.);
#222=EDGE_CURVE('',#187,#185,#134,.T.);
#223=EDGE_CURVE('',#187,#188,#135,.T.);
#224=EDGE_CURVE('',#186,#188,#136,.T.);
#225=EDGE_CURVE('',#189,#189,#49,.T.);
#226=EDGE_CURVE('',#190,#190,#50,.T.);
#227=EDGE_CURVE('',#191,#192,#137,.T.);
#228=EDGE_CURVE('',#193,#191,#138,.T.);
#229=EDGE_CURVE('',#193,#194,#139,.T.);
#230=EDGE_CURVE('',#192,#194,#140,.T.);
#231=EDGE_CURVE('',#195,#195,#51,.T.);
#232=EDGE_CURVE('',#196,#196,#52,.T.);
#233=EDGE_CURVE('',#188,#193,#141,.T.);
#234=EDGE_CURVE('',#194,#187,#142,.T.);
#235=EDGE_CURVE('',#197,#186,#143,.T.);
#236=EDGE_CURVE('',#198,#197,#144,.T.);
#237=EDGE_CURVE('',#198,#185,#145,.T.);
#238=EDGE_CURVE('',#192,#199,#146,.T.);
#239=EDGE_CURVE('',#200,#199,#147,.T.);
#240=EDGE_CURVE('',#191,#200,#148,.T.);
#241=EDGE_CURVE('',#201,#198,#149,.T.);
#242=EDGE_CURVE('',#201,#202,#150,.T.);
#243=EDGE_CURVE('',#199,#202,#151,.T.);
#244=EDGE_CURVE('',#203,#203,#53,.T.);
#245=EDGE_CURVE('',#204,#204,#54,.T.);
#246=EDGE_CURVE('',#205,#205,#15,.T.);
#247=EDGE_CURVE('',#206,#206,#55,.T.);
#248=EDGE_CURVE('',#207,#207,#56,.T.);
#249=EDGE_CURVE('',#208,#208,#16,.T.);
#250=EDGE_CURVE('',#209,#209,#57,.T.);
#251=EDGE_CURVE('',#210,#210,#58,.T.);
#252=EDGE_CURVE('',#211,#211,#59,.T.);
#253=EDGE_CURVE('',#212,#212,#60,.T.);
#254=EDGE_CURVE('',#213,#214,#61,.T.);
#255=EDGE_CURVE('',#214,#215,#152,.T.);
#256=EDGE_CURVE('',#216,#215,#62,.T.);
#257=EDGE_CURVE('',#213,#216,#153,.T.);
#258=EDGE_CURVE('',#217,#213,#154,.T.);
#259=EDGE_CURVE('',#218,#216,#155,.T.);
#260=EDGE_CURVE('',#217,#218,#156,.T.);
#261=EDGE_CURVE('',#201,#217,#63,.T.);
#262=EDGE_CURVE('',#202,#218,#64,.T.);
#263=EDGE_CURVE('',#219,#219,#65,.T.);
#264=EDGE_CURVE('',#220,#220,#66,.T.);
#265=EDGE_CURVE('',#215,#200,#157,.T.);
#266=EDGE_CURVE('',#197,#214,#158,.T.);
#267=ORIENTED_EDGE('',*,*,#221,.F.);
#268=ORIENTED_EDGE('',*,*,#222,.F.);
#269=ORIENTED_EDGE('',*,*,#223,.T.);
#270=ORIENTED_EDGE('',*,*,#224,.F.);
#271=ORIENTED_EDGE('',*,*,#225,.F.);
#272=ORIENTED_EDGE('',*,*,#226,.F.);
#273=ORIENTED_EDGE('',*,*,#227,.F.);
#274=ORIENTED_EDGE('',*,*,#228,.F.);
#275=ORIENTED_EDGE('',*,*,#229,.T.);
#276=ORIENTED_EDGE('',*,*,#230,.F.);
#277=ORIENTED_EDGE('',*,*,#231,.F.);
#278=ORIENTED_EDGE('',*,*,#232,.F.);
#279=ORIENTED_EDGE('',*,*,#233,.F.);
#280=ORIENTED_EDGE('',*,*,#223,.F.);
#281=ORIENTED_EDGE('',*,*,#234,.F.);
#282=ORIENTED_EDGE('',*,*,#229,.F.);
#283=ORIENTED_EDGE('',*,*,#221,.T.);
#284=ORIENTED_EDGE('',*,*,#235,.F.);
#285=ORIENTED_EDGE('',*,*,#236,.F.);
#286=ORIENTED_EDGE('',*,*,#237,.T.);
#287=ORIENTED_EDGE('',*,*,#227,.T.);
#288=ORIENTED_EDGE('',*,*,#238,.T.);
#289=ORIENTED_EDGE('',*,*,#239,.F.);
#290=ORIENTED_EDGE('',*,*,#240,.F.);
#291=ORIENTED_EDGE('',*,*,#230,.T.);
#292=ORIENTED_EDGE('',*,*,#234,.T.);
#293=ORIENTED_EDGE('',*,*,#222,.T.);
#294=ORIENTED_EDGE('',*,*,#237,.F.);
#295=ORIENTED_EDGE('',*,*,#241,.F.);
#296=ORIENTED_EDGE('',*,*,#242,.T.);
#297=ORIENTED_EDGE('',*,*,#243,.F.);
#298=ORIENTED_EDGE('',*,*,#238,.F.);
#299=ORIENTED_EDGE('',*,*,#244,.F.);
#300=ORIENTED_EDGE('',*,*,#231,.T.);
#301=ORIENTED_EDGE('',*,*,#245,.F.);
#302=ORIENTED_EDGE('',*,*,#232,.T.);
#303=ORIENTED_EDGE('',*,*,#246,.F.);
#304=ORIENTED_EDGE('',*,*,#247,.F.);
#305=ORIENTED_EDGE('',*,*,#247,.T.);
#306=ORIENTED_EDGE('',*,*,#248,.F.);
#307=ORIENTED_EDGE('',*,*,#249,.F.);
#308=ORIENTED_EDGE('',*,*,#250,.T.);
#309=ORIENTED_EDGE('',*,*,#250,.F.);
#310=ORIENTED_EDGE('',*,*,#251,.F.);
#311=ORIENTED_EDGE('',*,*,#248,.T.);
#312=ORIENTED_EDGE('',*,*,#252,.F.);
#313=ORIENTED_EDGE('',*,*,#251,.T.);
#314=ORIENTED_EDGE('',*,*,#253,.F.);
#315=ORIENTED_EDGE('',*,*,#254,.T.);
#316=ORIENTED_EDGE('',*,*,#255,.T.);
#317=ORIENTED_EDGE('',*,*,#256,.F.);
#318=ORIENTED_EDGE('',*,*,#257,.F.);
#319=ORIENTED_EDGE('',*,*,#246,.T.);
#320=ORIENTED_EDGE('',*,*,#249,.T.);
#321=ORIENTED_EDGE('',*,*,#258,.T.);
#322=ORIENTED_EDGE('',*,*,#257,.T.);
#323=ORIENTED_EDGE('',*,*,#259,.F.);
#324=ORIENTED_EDGE('',*,*,#260,.F.);
#325=ORIENTED_EDGE('',*,*,#252,.T.);
#326=ORIENTED_EDGE('',*,*,#253,.T.);
#327=ORIENTED_EDGE('',*,*,#261,.T.);
#328=ORIENTED_EDGE('',*,*,#260,.T.);
#329=ORIENTED_EDGE('',*,*,#262,.F.);
#330=ORIENTED_EDGE('',*,*,#242,.F.);
#331=ORIENTED_EDGE('',*,*,#225,.T.);
#332=ORIENTED_EDGE('',*,*,#263,.F.);
#333=ORIENTED_EDGE('',*,*,#226,.T.);
#334=ORIENTED_EDGE('',*,*,#264,.F.);
#335=ORIENTED_EDGE('',*,*,#228,.T.);
#336=ORIENTED_EDGE('',*,*,#240,.T.);
#337=ORIENTED_EDGE('',*,*,#265,.F.);
#338=ORIENTED_EDGE('',*,*,#255,.F.);
#339=ORIENTED_EDGE('',*,*,#266,.F.);
#340=ORIENTED_EDGE('',*,*,#235,.T.);
#341=ORIENTED_EDGE('',*,*,#224,.T.);
#342=ORIENTED_EDGE('',*,*,#233,.T.);
#343=ORIENTED_EDGE('',*,*,#266,.T.);
#344=ORIENTED_EDGE('',*,*,#254,.F.);
#345=ORIENTED_EDGE('',*,*,#258,.F.);
#346=ORIENTED_EDGE('',*,*,#261,.F.);
#347=ORIENTED_EDGE('',*,*,#241,.T.);
#348=ORIENTED_EDGE('',*,*,#236,.T.);
#349=ORIENTED_EDGE('',*,*,#263,.T.);
#350=ORIENTED_EDGE('',*,*,#264,.T.);
#351=ORIENTED_EDGE('',*,*,#265,.T.);
#352=ORIENTED_EDGE('',*,*,#239,.T.);
#353=ORIENTED_EDGE('',*,*,#243,.T.);
#354=ORIENTED_EDGE('',*,*,#262,.T.);
#355=ORIENTED_EDGE('',*,*,#259,.T.);
#356=ORIENTED_EDGE('',*,*,#256,.T.);
#357=ORIENTED_EDGE('',*,*,#244,.T.);
#358=ORIENTED_EDGE('',*,*,#245,.T.);
#359=PLANE('',#401);
#360=PLANE('',#404);
#361=PLANE('',#407);
#362=PLANE('',#408);
#363=PLANE('',#409);
#364=PLANE('',#410);
#365=PLANE('',#417);
#366=PLANE('',#421);
#367=PLANE('',#430);
#368=PLANE('',#438);
#369=PLANE('',#439);
#370=PLANE('',#440);
#371=ADVANCED_FACE('',(#67,#27,#28),#359,.F.);
#372=ADVANCED_FACE('',(#68,#29,#30),#360,.F.);
#373=ADVANCED_FACE('',(#69),#361,.F.);
#374=ADVANCED_FACE('',(#70),#362,.T.);
#375=ADVANCED_FACE('',(#71),#363,.T.);
#376=ADVANCED_FACE('',(#72),#364,.T.);
#377=ADVANCED_FACE('',(#73,#31),#17,.F.);
#378=ADVANCED_FACE('',(#74,#32),#18,.F.);
#379=ADVANCED_FACE('',(#75,#33),#19,.F.);
#380=ADVANCED_FACE('',(#76,#34),#365,.F.);
#381=ADVANCED_FACE('',(#77,#35),#20,.F.);
#382=ADVANCED_FACE('',(#78,#36),#366,.T.);
#383=ADVANCED_FACE('',(#79,#37),#21,.F.);
#384=ADVANCED_FACE('',(#80,#38),#22,.F.);
#385=ADVANCED_FACE('',(#81,#39,#40),#23,.T.);
#386=ADVANCED_FACE('',(#82,#41,#42),#367,.T.);
#387=ADVANCED_FACE('',(#83),#24,.F.);
#388=ADVANCED_FACE('',(#84,#43),#25,.F.);
#389=ADVANCED_FACE('',(#85,#44),#26,.F.);
#390=ADVANCED_FACE('',(#86),#368,.T.);
#391=ADVANCED_FACE('',(#87,#45,#46),#369,.F.);
#392=ADVANCED_FACE('',(#88,#47,#48),#370,.T.);
#393=CLOSED_SHELL('',(#371,#372,#373,#374,#375,#376,#377,#378,#379,#380,
#381,#382,#383,#384,#385,#386,#387,#388,#389,#390,#391,#392));
#394=DATE_TIME_ROLE('creation_date');
#395=APPLIED_DATE_AND_TIME_ASSIGNMENT(#396,#394,(#742));
#396=DATE_AND_TIME(#397,#398);
#397=CALENDAR_DATE(2016,13,10);
#398=LOCAL_TIME(4,35,27.,#399);
#399=COORDINATED_UNIVERSAL_TIME_OFFSET(0,0,.BEHIND.);
#400=AXIS2_PLACEMENT_3D('placement',#549,#441,#442);
#401=AXIS2_PLACEMENT_3D('',#550,#443,#444);
#402=AXIS2_PLACEMENT_3D('',#560,#449,#450);
#403=AXIS2_PLACEMENT_3D('',#562,#451,#452);
#404=AXIS2_PLACEMENT_3D('',#563,#453,#454);
#405=AXIS2_PLACEMENT_3D('',#573,#459,#460);
#406=AXIS2_PLACEMENT_3D('',#575,#461,#462);
#407=AXIS2_PLACEMENT_3D('',#576,#463,#464);
#408=AXIS2_PLACEMENT_3D('',#579,#467,#468);
#409=AXIS2_PLACEMENT_3D('',#585,#472,#473);
#410=AXIS2_PLACEMENT_3D('',#591,#477,#478);
#411=AXIS2_PLACEMENT_3D('',#597,#482,#483);
#412=AXIS2_PLACEMENT_3D('',#599,#484,#485);
#413=AXIS2_PLACEMENT_3D('',#600,#486,#487);
#414=AXIS2_PLACEMENT_3D('',#602,#488,#489);
#415=AXIS2_PLACEMENT_3D('',#603,#490,#491);
#416=AXIS2_PLACEMENT_3D('',#644,#492,#493);
#417=AXIS2_PLACEMENT_3D('',#645,#494,#495);
#418=AXIS2_PLACEMENT_3D('',#647,#496,#497);
#419=AXIS2_PLACEMENT_3D('',#648,#498,#499);
#420=AXIS2_PLACEMENT_3D('',#689,#500,#501);
#421=AXIS2_PLACEMENT_3D('',#690,#502,#503);
#422=AXIS2_PLACEMENT_3D('',#692,#504,#505);
#423=AXIS2_PLACEMENT_3D('',#693,#506,#507);
#424=AXIS2_PLACEMENT_3D('',#695,#508,#509);
#425=AXIS2_PLACEMENT_3D('',#696,#510,#511);
#426=AXIS2_PLACEMENT_3D('',#698,#512,#513);
#427=AXIS2_PLACEMENT_3D('',#699,#514,#515);
#428=AXIS2_PLACEMENT_3D('',#702,#516,#517);
#429=AXIS2_PLACEMENT_3D('',#706,#519,#520);
#430=AXIS2_PLACEMENT_3D('',#708,#522,#523);
#431=AXIS2_PLACEMENT_3D('',#714,#527,#528);
#432=AXIS2_PLACEMENT_3D('',#715,#529,#530);
#433=AXIS2_PLACEMENT_3D('',#716,#531,#532);
#434=AXIS2_PLACEMENT_3D('',#717,#533,#534);
#435=AXIS2_PLACEMENT_3D('',#719,#535,#536);
#436=AXIS2_PLACEMENT_3D('',#720,#537,#538);
#437=AXIS2_PLACEMENT_3D('',#722,#539,#540);
#438=AXIS2_PLACEMENT_3D('',#723,#541,#542);
#439=AXIS2_PLACEMENT_3D('',#726,#545,#546);
#440=AXIS2_PLACEMENT_3D('',#727,#547,#548);
#441=DIRECTION('axis',(0.,0.,1.));
#442=DIRECTION('refdir',(1.,0.,0.));
#443=DIRECTION('center_axis',(-1.,0.,-1.85037170770859E-16));
#444=DIRECTION('ref_axis',(-1.77635683940025E-16,0.,1.));
#445=DIRECTION('',(-1.85037170770859E-16,0.,1.));
#446=DIRECTION('',(0.,-1.,0.));
#447=DIRECTION('',(-1.85037170770859E-16,0.,1.));
#448=DIRECTION('',(0.,1.,0.));
#449=DIRECTION('center_axis',(1.,0.,1.85037170770859E-16));
#450=DIRECTION('ref_axis',(0.,0.,1.));
#451=DIRECTION('center_axis',(1.,0.,1.85037170770859E-16));
#452=DIRECTION('ref_axis',(0.,0.,1.));
#453=DIRECTION('center_axis',(1.,0.,0.));
#454=DIRECTION('ref_axis',(0.,0.,-1.));
#455=DIRECTION('',(0.,0.,-1.));
#456=DIRECTION('',(0.,-1.,0.));
#457=DIRECTION('',(0.,0.,-1.));
#458=DIRECTION('',(0.,1.,0.));
#459=DIRECTION('center_axis',(-1.,0.,0.));
#460=DIRECTION('ref_axis',(0.,0.,1.));
#461=DIRECTION('center_axis',(-1.,0.,0.));
#462=DIRECTION('ref_axis',(0.,0.,1.));
#463=DIRECTION('center_axis',(0.,1.,0.));
#464=DIRECTION('ref_axis',(0.,0.,1.));
#465=DIRECTION('',(1.,0.,0.));
#466=DIRECTION('',(-1.,0.,0.));
#467=DIRECTION('center_axis',(0.,-1.,0.));
#468=DIRECTION('ref_axis',(0.,0.,-1.));
#469=DIRECTION('',(1.,0.,0.));
#470=DIRECTION('',(0.,0.,1.));
#471=DIRECTION('',(1.,0.,0.));
#472=DIRECTION('center_axis',(0.,-1.,0.));
#473=DIRECTION('ref_axis',(0.,0.,-1.));
#474=DIRECTION('',(1.,0.,0.));
#475=DIRECTION('',(0.,0.,-1.));
#476=DIRECTION('',(1.,0.,0.));
#477=DIRECTION('center_axis',(0.,0.,-1.));
#478=DIRECTION('ref_axis',(0.,1.,0.));
#479=DIRECTION('',(0.,-1.,0.));
#480=DIRECTION('',(1.,0.,0.));
#481=DIRECTION('',(0.,1.,0.));
#482=DIRECTION('center_axis',(1.,0.,0.));
#483=DIRECTION('ref_axis',(0.,0.,1.));
#484=DIRECTION('center_axis',(-1.,0.,0.));
#485=DIRECTION('ref_axis',(0.,0.,1.));
#486=DIRECTION('center_axis',(1.,0.,0.));
#487=DIRECTION('ref_axis',(0.,0.,1.));
#488=DIRECTION('center_axis',(-1.,0.,0.));
#489=DIRECTION('ref_axis',(0.,0.,1.));
#490=DIRECTION('center_axis',(0.,0.,-1.));
#491=DIRECTION('ref_axis',(1.,0.,0.));
#492=DIRECTION('center_axis',(0.,0.,1.));
#493=DIRECTION('ref_axis',(1.,0.,0.));
#494=DIRECTION('center_axis',(0.,0.,-1.));
#495=DIRECTION('ref_axis',(-1.,0.,0.));
#496=DIRECTION('center_axis',(0.,0.,1.));
#497=DIRECTION('ref_axis',(-1.,0.,0.));
#498=DIRECTION('center_axis',(0.,0.,1.));
#499=DIRECTION('ref_axis',(-1.,0.,0.));
#500=DIRECTION('center_axis',(0.,0.,-1.));
#501=DIRECTION('ref_axis',(-1.,0.,0.));
#502=DIRECTION('center_axis',(0.,0.,1.));
#503=DIRECTION('ref_axis',(1.,0.,0.));
#504=DIRECTION('center_axis',(0.,0.,1.));
#505=DIRECTION('ref_axis',(1.,0.,0.));
#506=DIRECTION('center_axis',(0.,0.,-1.));
#507=DIRECTION('ref_axis',(-1.,0.,0.));
#508=DIRECTION('center_axis',(0.,0.,1.));
#509=DIRECTION('ref_axis',(-1.,0.,0.));
#510=DIRECTION('center_axis',(0.,0.,1.));
#511=DIRECTION('ref_axis',(1.,0.,0.));
#512=DIRECTION('center_axis',(0.,0.,1.));
#513=DIRECTION('ref_axis',(1.,0.,0.));
#514=DIRECTION('center_axis',(1.,0.,0.));
#515=DIRECTION('ref_axis',(0.,-3.1720657846433E-16,-1.));
#516=DIRECTION('center_axis',(1.,0.,0.));
#517=DIRECTION('ref_axis',(0.,-3.1720657846433E-16,-1.));
#518=DIRECTION('',(1.,0.,0.));
#519=DIRECTION('center_axis',(1.,0.,0.));
#520=DIRECTION('ref_axis',(0.,-3.1720657846433E-16,-1.));
#521=DIRECTION('',(1.,0.,0.));
#522=DIRECTION('center_axis',(0.,0.,-1.));
#523=DIRECTION('ref_axis',(0.,1.,0.));
#524=DIRECTION('',(0.,1.,0.));
#525=DIRECTION('',(0.,1.,0.));
#526=DIRECTION('',(1.,0.,0.));
#527=DIRECTION('center_axis',(1.,0.,0.));
#528=DIRECTION('ref_axis',(0.,0.,1.));
#529=DIRECTION('center_axis',(-1.,0.,0.));
#530=DIRECTION('ref_axis',(0.,0.,1.));
#531=DIRECTION('center_axis',(-1.,0.,0.));
#532=DIRECTION('ref_axis',(0.,0.,1.));
#533=DIRECTION('center_axis',(1.,0.,0.));
#534=DIRECTION('ref_axis',(0.,0.,1.));
#535=DIRECTION('center_axis',(1.,0.,0.));
#536=DIRECTION('ref_axis',(0.,0.,1.));
#537=DIRECTION('center_axis',(1.,0.,0.));
#538=DIRECTION('ref_axis',(0.,0.,1.));
#539=DIRECTION('center_axis',(1.,0.,0.));
#540=DIRECTION('ref_axis',(0.,0.,1.));
#541=DIRECTION('center_axis',(0.,0.,1.));
#542=DIRECTION('ref_axis',(0.,-1.,0.));
#543=DIRECTION('',(0.,-1.,0.));
#544=DIRECTION('',(0.,1.,0.));
#545=DIRECTION('center_axis',(1.,0.,0.));
#546=DIRECTION('ref_axis',(0.,0.,-1.));
#547=DIRECTION('center_axis',(1.,0.,0.));
#548=DIRECTION('ref_axis',(0.,0.,-1.));
#549=CARTESIAN_POINT('',(0.,0.,0.));
#550=CARTESIAN_POINT('Origin',(6.5,0.,-12.));
#551=CARTESIAN_POINT('',(6.5,0.,-12.));
#552=CARTESIAN_POINT('',(6.5,0.,0.));
#553=CARTESIAN_POINT('',(6.5,0.,-6.));
#554=CARTESIAN_POINT('',(6.5,18.,-12.));
#555=CARTESIAN_POINT('',(6.5,0.,-12.));
#556=CARTESIAN_POINT('',(6.5,18.,0.));
#557=CARTESIAN_POINT('',(6.5,18.,-12.));
#558=CARTESIAN_POINT('',(6.5,13.,0.));
#559=CARTESIAN_POINT('',(6.5,5.,-8.));
#560=CARTESIAN_POINT('Origin',(6.5,5.,-6.));
#561=CARTESIAN_POINT('',(6.5,11.,-8.5));
#562=CARTESIAN_POINT('Origin',(6.5,11.,-6.));
#563=CARTESIAN_POINT('Origin',(14.5,0.,0.));
#564=CARTESIAN_POINT('',(14.5,0.,0.));
#565=CARTESIAN_POINT('',(14.5,0.,-12.));
#566=CARTESIAN_POINT('',(14.5,0.,0.));
#567=CARTESIAN_POINT('',(14.5,18.,0.));
#568=CARTESIAN_POINT('',(14.5,13.,0.));
#569=CARTESIAN_POINT('',(14.5,18.,-12.));
#570=CARTESIAN_POINT('',(14.5,18.,0.));
#571=CARTESIAN_POINT('',(14.5,0.,-12.));
#572=CARTESIAN_POINT('',(14.5,5.,-8.));
#573=CARTESIAN_POINT('Origin',(14.5,5.,-6.));
#574=CARTESIAN_POINT('',(14.5,11.,-8.5));
#575=CARTESIAN_POINT('Origin',(14.5,11.,-6.));
#576=CARTESIAN_POINT('Origin',(10.5,18.,-6.));
#577=CARTESIAN_POINT('',(5.25,18.,0.));
#578=CARTESIAN_POINT('',(5.25,18.,-12.));
#579=CARTESIAN_POINT('Origin',(0.,0.,0.));
#580=CARTESIAN_POINT('',(0.,0.,0.));
#581=CARTESIAN_POINT('',(0.,0.,0.));
#582=CARTESIAN_POINT('',(0.,0.,-12.));
#583=CARTESIAN_POINT('',(0.,0.,-12.));
#584=CARTESIAN_POINT('',(0.,0.,-12.));
#585=CARTESIAN_POINT('Origin',(0.,0.,0.));
#586=CARTESIAN_POINT('',(21.,0.,-12.));
#587=CARTESIAN_POINT('',(0.,0.,-12.));
#588=CARTESIAN_POINT('',(21.,0.,0.));
#589=CARTESIAN_POINT('',(21.,0.,-12.));
#590=CARTESIAN_POINT('',(0.,0.,0.));
#591=CARTESIAN_POINT('Origin',(0.,0.,-12.));
#592=CARTESIAN_POINT('',(0.,26.,-12.));
#593=CARTESIAN_POINT('',(0.,26.,-12.));
#594=CARTESIAN_POINT('',(21.,26.,-12.));
#595=CARTESIAN_POINT('',(0.,26.,-12.));
#596=CARTESIAN_POINT('',(21.,26.,-12.));
#597=CARTESIAN_POINT('Origin',(13.5,5.,-6.));
#598=CARTESIAN_POINT('',(21.,5.,-8.));
#599=CARTESIAN_POINT('Origin',(21.,5.,-6.));
#600=CARTESIAN_POINT('Origin',(13.5,11.,-6.));
#601=CARTESIAN_POINT('',(21.,11.,-8.5));
#602=CARTESIAN_POINT('Origin',(21.,11.,-6.));
#603=CARTESIAN_POINT('Origin',(6.,34.,-10.));
#604=CARTESIAN_POINT('',(6.,37.5,-6.01564028866435));
#605=CARTESIAN_POINT('Ctrl Pts',(6.,37.5,-6.01564028866435));
#606=CARTESIAN_POINT('Ctrl Pts',(6.22885337192242,37.5,-6.01564028866435));
#607=CARTESIAN_POINT('Ctrl Pts',(6.4556510986045,37.4773530202658,-5.98277504988363));
#608=CARTESIAN_POINT('Ctrl Pts',(6.89273903851778,37.3915511163568,-5.86132127406146));
#609=CARTESIAN_POINT('Ctrl Pts',(7.1030968873779,37.3284301017628,-5.77295229951584));
#610=CARTESIAN_POINT('Ctrl Pts',(7.69569108332998,37.0912316381761,-5.4527694952473));
#611=CARTESIAN_POINT('Ctrl Pts',(8.03995941115408,36.8670607102051,-5.16583949680221));
#612=CARTESIAN_POINT('Ctrl Pts',(8.67223182226748,36.3106754665563,-4.5170210457093));
#613=CARTESIAN_POINT('Ctrl Pts',(8.97533475259401,35.9093899573586,-4.09133206554794));
#614=CARTESIAN_POINT('Ctrl Pts',(9.39004411263715,35.0029891220315,-3.26110348831337));
#615=CARTESIAN_POINT('Ctrl Pts',(9.5,34.4968621163454,-2.85684507711031));
#616=CARTESIAN_POINT('Ctrl Pts',(9.5,33.5851763381207,-2.22202858414432));
#617=CARTESIAN_POINT('Ctrl Pts',(9.42144054856682,33.1205404490265,-1.93547582789987));
#618=CARTESIAN_POINT('Ctrl Pts',(9.05906267826992,32.233126630315,-1.45396595953383));
#619=CARTESIAN_POINT('Ctrl Pts',(8.77403988389016,31.8114295845256,-1.25792516471891));
#620=CARTESIAN_POINT('Ctrl Pts',(8.12379708409338,31.1869849378516,-0.992559890614336));
#621=CARTESIAN_POINT('Ctrl Pts',(7.74094587225799,30.929650320061,-0.895347645912173));
#622=CARTESIAN_POINT('Ctrl Pts',(6.89612804836917,30.5860732255339,-0.771194445870966));
#623=CARTESIAN_POINT('Ctrl Pts',(6.43428816318388,30.5,-0.742926416437149));
#624=CARTESIAN_POINT('Ctrl Pts',(5.56571183681612,30.5,-0.742926416437149));
#625=CARTESIAN_POINT('Ctrl Pts',(5.10387195163083,30.5860732255339,-0.771194445870966));
#626=CARTESIAN_POINT('Ctrl Pts',(4.25905412774201,30.929650320061,-0.895347645912173));
#627=CARTESIAN_POINT('Ctrl Pts',(3.87620291590662,31.1869849378516,-0.992559890614336));
#628=CARTESIAN_POINT('Ctrl Pts',(3.22596011610984,31.8114295845256,-1.25792516471891));
#629=CARTESIAN_POINT('Ctrl Pts',(2.94093732173007,32.233126630315,-1.45396595953383));
#630=CARTESIAN_POINT('Ctrl Pts',(2.57855945143318,33.1205404490265,-1.93547582789987));
#631=CARTESIAN_POINT('Ctrl Pts',(2.5,33.5851763381207,-2.22202858414432));
#632=CARTESIAN_POINT('Ctrl Pts',(2.5,34.4968621163454,-2.85684507711031));
#633=CARTESIAN_POINT('Ctrl Pts',(2.60995588736285,35.0029891220315,-3.26110348831337));
#634=CARTESIAN_POINT('Ctrl Pts',(3.02466524740599,35.9093899573586,-4.09133206554793));
#635=CARTESIAN_POINT('Ctrl Pts',(3.32776817773252,36.3106754665563,-4.5170210457093));
#636=CARTESIAN_POINT('Ctrl Pts',(3.96004058884592,36.8670607102051,-5.1658394968022));
#637=CARTESIAN_POINT('Ctrl Pts',(4.30430891667002,37.0912316381761,-5.4527694952473));
#638=CARTESIAN_POINT('Ctrl Pts',(4.8969031126221,37.3284301017628,-5.77295229951584));
#639=CARTESIAN_POINT('Ctrl Pts',(5.10726096148222,37.3915511163568,-5.86132127406146));
#640=CARTESIAN_POINT('Ctrl Pts',(5.5443489013955,37.4773530202658,-5.98277504988363));
#641=CARTESIAN_POINT('Ctrl Pts',(5.77114662807758,37.5,-6.01564028866435));
#642=CARTESIAN_POINT('Ctrl Pts',(6.,37.5,-6.01564028866435));
#643=CARTESIAN_POINT('',(2.5,34.,-10.));
#644=CARTESIAN_POINT('Origin',(6.,34.,-10.));
#645=CARTESIAN_POINT('Origin',(6.,34.,-10.));
#646=CARTESIAN_POINT('',(8.,34.,-10.));
#647=CARTESIAN_POINT('Origin',(6.,34.,-10.));
#648=CARTESIAN_POINT('Origin',(15.,34.,-10.));
#649=CARTESIAN_POINT('',(15.,30.5,-0.742926416437149));
#650=CARTESIAN_POINT('Ctrl Pts',(15.,30.5,-0.742926416437149));
#651=CARTESIAN_POINT('Ctrl Pts',(14.5657118368161,30.5,-0.742926416437149));
#652=CARTESIAN_POINT('Ctrl Pts',(14.1038719516308,30.5860732255339,-0.771194445870966));
#653=CARTESIAN_POINT('Ctrl Pts',(13.259054127742,30.929650320061,-0.895347645912173));
#654=CARTESIAN_POINT('Ctrl Pts',(12.8762029159066,31.1869849378516,-0.992559890614336));
#655=CARTESIAN_POINT('Ctrl Pts',(12.2259601161098,31.8114295845256,-1.25792516471891));
#656=CARTESIAN_POINT('Ctrl Pts',(11.9409373217301,32.233126630315,-1.45396595953383));
#657=CARTESIAN_POINT('Ctrl Pts',(11.5785594514332,33.1205404490265,-1.93547582789987));
#658=CARTESIAN_POINT('Ctrl Pts',(11.5,33.5851763381207,-2.22202858414432));
#659=CARTESIAN_POINT('Ctrl Pts',(11.5,34.4968621163454,-2.85684507711031));
#660=CARTESIAN_POINT('Ctrl Pts',(11.6099558873629,35.0029891220315,-3.26110348831337));
#661=CARTESIAN_POINT('Ctrl Pts',(12.024665247406,35.9093899573586,-4.09133206554794));
#662=CARTESIAN_POINT('Ctrl Pts',(12.3277681777325,36.3106754665563,-4.5170210457093));
#663=CARTESIAN_POINT('Ctrl Pts',(12.9600405888459,36.8670607102051,-5.16583949680221));
#664=CARTESIAN_POINT('Ctrl Pts',(13.30430891667,37.0912316381761,-5.4527694952473));
#665=CARTESIAN_POINT('Ctrl Pts',(13.8969031126221,37.3284301017628,-5.77295229951584));
#666=CARTESIAN_POINT('Ctrl Pts',(14.1072609614822,37.3915511163568,-5.86132127406146));
#667=CARTESIAN_POINT('Ctrl Pts',(14.5443489013955,37.4773530202658,-5.98277504988363));
#668=CARTESIAN_POINT('Ctrl Pts',(14.7711466280776,37.5,-6.01564028866435));
#669=CARTESIAN_POINT('Ctrl Pts',(15.2288533719224,37.5,-6.01564028866435));
#670=CARTESIAN_POINT('Ctrl Pts',(15.4556510986045,37.4773530202658,-5.98277504988363));
#671=CARTESIAN_POINT('Ctrl Pts',(15.8927390385178,37.3915511163568,-5.86132127406146));
#672=CARTESIAN_POINT('Ctrl Pts',(16.1030968873779,37.3284301017628,-5.77295229951584));
#673=CARTESIAN_POINT('Ctrl Pts',(16.69569108333,37.0912316381761,-5.4527694952473));
#674=CARTESIAN_POINT('Ctrl Pts',(17.0399594111541,36.8670607102051,-5.16583949680221));
#675=CARTESIAN_POINT('Ctrl Pts',(17.6722318222675,36.3106754665563,-4.5170210457093));
#676=CARTESIAN_POINT('Ctrl Pts',(17.975334752594,35.9093899573586,-4.09133206554794));
#677=CARTESIAN_POINT('Ctrl Pts',(18.3900441126371,35.0029891220315,-3.26110348831337));
#678=CARTESIAN_POINT('Ctrl Pts',(18.5,34.4968621163454,-2.85684507711031));
#679=CARTESIAN_POINT('Ctrl Pts',(18.5,33.5851763381207,-2.22202858414432));
#680=CARTESIAN_POINT('Ctrl Pts',(18.4214405485668,33.1205404490265,-1.93547582789987));
#681=CARTESIAN_POINT('Ctrl Pts',(18.0590626782699,32.233126630315,-1.45396595953383));
#682=CARTESIAN_POINT('Ctrl Pts',(17.7740398838902,31.8114295845256,-1.25792516471891));
#683=CARTESIAN_POINT('Ctrl Pts',(17.1237970840934,31.1869849378516,-0.992559890614336));
#684=CARTESIAN_POINT('Ctrl Pts',(16.740945872258,30.929650320061,-0.895347645912175));
#685=CARTESIAN_POINT('Ctrl Pts',(15.8961280483692,30.5860732255339,-0.771194445870968));
#686=CARTESIAN_POINT('Ctrl Pts',(15.4342881631839,30.5,-0.742926416437149));
#687=CARTESIAN_POINT('Ctrl Pts',(15.,30.5,-0.742926416437149));
#688=CARTESIAN_POINT('',(18.5,34.,-10.));
#689=CARTESIAN_POINT('Origin',(15.,34.,-10.));
#690=CARTESIAN_POINT('Origin',(15.,34.,-10.));
#691=CARTESIAN_POINT('',(13.,34.,-10.));
#692=CARTESIAN_POINT('Origin',(15.,34.,-10.));
#693=CARTESIAN_POINT('Origin',(6.,34.,-14.));
#694=CARTESIAN_POINT('',(8.,34.,-14.));
#695=CARTESIAN_POINT('Origin',(6.,34.,-14.));
#696=CARTESIAN_POINT('Origin',(15.,34.,-14.));
#697=CARTESIAN_POINT('',(13.,34.,-14.));
#698=CARTESIAN_POINT('Origin',(15.,34.,-14.));
#699=CARTESIAN_POINT('Origin',(0.,26.,-14.));
#700=CARTESIAN_POINT('',(0.,40.,-14.));
#701=CARTESIAN_POINT('',(0.,26.,0.));
#702=CARTESIAN_POINT('Origin',(0.,26.,-14.));
#703=CARTESIAN_POINT('',(21.,26.,0.));
#704=CARTESIAN_POINT('',(0.,26.,0.));
#705=CARTESIAN_POINT('',(21.,40.,-14.));
#706=CARTESIAN_POINT('Origin',(21.,26.,-14.));
#707=CARTESIAN_POINT('',(0.,40.,-14.));
#708=CARTESIAN_POINT('Origin',(0.,28.,-14.));
#709=CARTESIAN_POINT('',(0.,28.,-14.));
#710=CARTESIAN_POINT('',(0.,28.,-14.));
#711=CARTESIAN_POINT('',(21.,28.,-14.));
#712=CARTESIAN_POINT('',(21.,28.,-14.));
#713=CARTESIAN_POINT('',(0.,28.,-14.));
#714=CARTESIAN_POINT('Origin',(0.,26.,-14.));
#715=CARTESIAN_POINT('Origin',(0.,26.,-14.));
#716=CARTESIAN_POINT('Origin',(21.,26.,-14.));
#717=CARTESIAN_POINT('Origin',(13.5,5.,-6.));
#718=CARTESIAN_POINT('',(0.,5.,-8.));
#719=CARTESIAN_POINT('Origin',(0.,5.,-6.));
#720=CARTESIAN_POINT('Origin',(13.5,11.,-6.));
#721=CARTESIAN_POINT('',(0.,11.,-8.5));
#722=CARTESIAN_POINT('Origin',(0.,11.,-6.));
#723=CARTESIAN_POINT('Origin',(0.,26.,0.));
#724=CARTESIAN_POINT('',(21.,0.,0.));
#725=CARTESIAN_POINT('',(0.,0.,0.));
#726=CARTESIAN_POINT('Origin',(0.,13.,-6.));
#727=CARTESIAN_POINT('Origin',(21.,13.,-6.));
#728=UNCERTAINTY_MEASURE_WITH_UNIT(LENGTH_MEASURE(0.01),#732,
'DISTANCE_ACCURACY_VALUE',
'Maximum model space distance between geometric entities at asserted c
onnectivities');
#729=UNCERTAINTY_MEASURE_WITH_UNIT(LENGTH_MEASURE(1.E-6),#732,
'DISTANCE_ACCURACY_VALUE',
'Maximum model space distance between geometric entities at asserted c
onnectivities');
#730=(
GEOMETRIC_REPRESENTATION_CONTEXT(3)
GLOBAL_UNCERTAINTY_ASSIGNED_CONTEXT((#728))
GLOBAL_UNIT_ASSIGNED_CONTEXT((#732,#735,#733))
REPRESENTATION_CONTEXT('','3D')
);
#731=(
GEOMETRIC_REPRESENTATION_CONTEXT(3)
GLOBAL_UNCERTAINTY_ASSIGNED_CONTEXT((#729))
GLOBAL_UNIT_ASSIGNED_CONTEXT((#732,#735,#733))
REPRESENTATION_CONTEXT('','3D')
);
#732=(
LENGTH_UNIT()
NAMED_UNIT(*)
SI_UNIT(.MILLI.,.METRE.)
);
#733=(
NAMED_UNIT(*)
SI_UNIT($,.STERADIAN.)
SOLID_ANGLE_UNIT()
);
#734=DIMENSIONAL_EXPONENTS(0.,0.,0.,0.,0.,0.,0.);
#735=(
CONVERSION_BASED_UNIT('degree',#737)
NAMED_UNIT(#734)
PLANE_ANGLE_UNIT()
);
#736=(
NAMED_UNIT(*)
PLANE_ANGLE_UNIT()
SI_UNIT($,.RADIAN.)
);
#737=PLANE_ANGLE_MEASURE_WITH_UNIT(PLANE_ANGLE_MEASURE(0.01745329252),#736);
#738=SHAPE_DEFINITION_REPRESENTATION(#739,#740);
#739=PRODUCT_DEFINITION_SHAPE('',$,#742);
#740=SHAPE_REPRESENTATION('',(#400),#730);
#741=PRODUCT_DEFINITION_CONTEXT('part definition',#746,'design');
#742=PRODUCT_DEFINITION('gripper_finger','gripper_finger',#743,#741);
#743=PRODUCT_DEFINITION_FORMATION('',$,#748);
#744=PRODUCT_RELATED_PRODUCT_CATEGORY('gripper_finger','gripper_finger',
(#748));
#745=APPLICATION_PROTOCOL_DEFINITION('international standard',
'automotive_design',2009,#746);
#746=APPLICATION_CONTEXT(
'Core Data for Automotive Mechanical Design Process');
#747=PRODUCT_CONTEXT('part definition',#746,'mechanical');
#748=PRODUCT('gripper_finger','gripper_finger',$,(#747));
#749=PRESENTATION_STYLE_ASSIGNMENT((#750));
#750=SURFACE_STYLE_USAGE(.BOTH.,#751);
#751=SURFACE_SIDE_STYLE('',(#752));
#752=SURFACE_STYLE_FILL_AREA(#753);
#753=FILL_AREA_STYLE('',(#754));
#754=FILL_AREA_STYLE_COLOUR('',#755);
#755=COLOUR_RGB('',0.749019607843137,0.749019607843137,0.749019607843137);
ENDSEC;
END-ISO-10303-21;
