Timestamp,Real Time,Availability,Quality,OEE
42594.3201388889,42712.3201388889,100,100,100
42594.3276273148,42712.3276273148,62.02916159,50,31.01458079
42594.3391898148,42712.3391898148,67.29559747,33.33333333,22.43186582
42594.3440625000,42712.3440625000,75.4716981,50,37.73584905
42594.3520370370,42712.3520370370,80.16431924,60,48.09859154
42594.3595833333,42712.3595833333,80.67164178,50,40.33582089
42594.3666666667,42712.3666666667,83.42223169,57.14285714,47.66984668
42594.3743865741,42712.3743865741,83.55335533,50,41.77667766
42594.3832638889,42712.3832638889,85.25156198,55.55555556,47.36197888
42594.3905324074,42712.3905324074,83.54449702,50,41.77224851
42594.3959606482,42712.3959606482,84.99652052,54.54545455,46.36173847
42594.4032986111,42712.4032986111,80.02239084,50,40.01119542
42594.4131828704,42712.4131828704,78.37996708,46.15384615,36.17536942
42594.4185879630,42712.4185879630,79.97604529,50,39.98802264
42594.4264351852,42712.4264351852,75.36820241,46.66666667,35.17182779
42594.4427314815,42712.4427314815,76.91354747,50,38.45677373
42594.4509375000,42712.4509375000,78.23112223,52.94117647,41.41647647
42594.4588541667,42712.4588541667,74.54459427,50,37.27229713
42594.4669097222,42712.4669097222,75.77122269,52.63157895,39.87959089
42594.4743402778,42712.4743402778,75.01397428,50,37.50698714
42594.4857870370,42712.4857870370,74.63274572,47.61904762,35.53940272
42594.4934722222,42712.4934722222,75.55970149,50,37.77985074
42594.5000462963,42712.5000462963,76.65171163,52.17391304,39.99219737
42594.5084606482,42712.5084606482,77.66082558,54.16666667,42.06628052
42594.5169675926,42712.5169675926,75.46800782,52,39.24336407
42594.5272569444,42712.5272569444,75.14165092,50,37.57082546
42594.5284953704,42712.5284953704,74.81788079,48.14814815,36.02342408
42594.5298611111,42712.5298611111,73.33082058,46.42857143,34.04645241
42594.5350925926,42712.5350925926,72.91499919,44.82758621,32.68603412
42594.5370486111,42712.5370486111,73.92778262,46.66666667,34.49963189
42594.5454745370,42712.5454745370,74.78014606,48.38709677,36.18394164
42594.5530902778,42712.5530902778,75.65584383,50,37.82792192
42594.5614699074,42712.5614699074,76.55752089,51.51515152,39.43872288
42594.5707523148,42712.5707523148,77.27435529,52.94117647,40.9099528
42594.5786574074,42712.5786574074,77.93810847,54.28571429,42.30925889
42594.5864351852,42712.5864351852,78.58950564,55.55555556,43.66083647
42594.5945370370,42712.5945370370,79.13429522,56.75675676,44.91405945
42594.6017013889,42712.6017013889,79.71952534,57.89473684,46.15340941